{
  "defaultSeverity": "warning",
  "extends": [
    "tslint-config-airbnb"
  ],
  "linterOptions": {
    "exclude": [
      "node_modules/**"
    ]
  },
  "rules": {
    "quotemark": [true, "single"],
    "indent": [true, "spaces", 2],
    "interface-name": false,
    "ordered-imports": false,
    "object-literal-sort-keys": false,
    "no-consecutive-blank-lines": false,
    "no-console": [false, "log", "error"],
    "import-spacing": false,
    "strictPropertyInitialization": false,
    "strict": true,
    "import-name": [false, { "graphqlTag": "gql" }]
  }
}
